################################################################################
################################################################################


#!/bin/sh
# make sure we stop on errors, and log everything
set -e
set -x
set -u
DATE=`date +%Y%m%d.%H%M%S`
LOGFILE="$DATE.log"
echo "Start: $DATE"
export PATH=../../ooc:$PATH
DELIMITER="################################################################################"

# remember this script in the log
echo -e "$DELIMITER\n$DELIMITER\n\n" >> $LOGFILE
cat $0 >> $LOGFILE
echo -e "\n$DELIMITER\n" >> $LOGFILE

# Gather some info on the system
uname -a >> $LOGFILE
cat /proc/cmdline >> $LOGFILE
numactl -H >> $LOGFILE

echo -e "\n$DELIMITER\n" >> $LOGFILE

env >> $LOGFILE
ulimit -n 4096
ulimit -a >> $LOGFILE

echo -e "\n$DELIMITER\n" >> $LOGFILE

FAST_MEM=4,5,6,7
SLOW_MEM=0,1,2,3
REPEATS=30
# big enough for MEMSIZE/NUMTHREADS > LLC SIZE/NUMTHREADS
MEMSIZE=28

# record the trace of the ooc benchmark, for varying thread size.
for work in `seq 1 20`
do
	export OMP_NUM_THREADS=64
	export OMP_PLACES=cores
	export OMP_PROC_BIND=true
	for times in `seq 1 $REPEATS`;
	do
		echo "ooc $work 64 $times" >> $LOGFILE
		numactl --cpunodebind $SLOW_MEM pth add $SLOW_MEM $FAST_MEM $MEMSIZE 64 32 10 $work >> $LOGFILE
	done
done

DONEDATE=`date +%Y%m%d.%H%M%S`
echo "Done: $DONEDATE" >> $LOGFILE

################################################################################

Linux knl03.ftm.alcf.anl.gov 3.10.0-327.13.1.el7.mpsp_1.3.2.100_725fc629ff.x86_64 #1 SMP Mon Jun 6 17:01:26 UTC 2016 x86_64 x86_64 x86_64 GNU/Linux
BOOT_IMAGE=bootstrap/259/kernel ro initrd=bootstrap/259/initfs.gz wwhostname=knl03.ftm.alcf.anl.gov quiet console=tty0 console=ttyS0,115200 net.ifnames=0 wwmaster=10.17.6.77 wwipaddr=10.17.6.107 wwnetmask=255.255.0.0 wwnetdev=eth0 
available: 8 nodes (0-7)
node 0 cpus: 0 1 2 3 4 5 6 7 8 9 10 11 12 13 14 15 64 65 66 67 68 69 70 71 72 73 74 75 76 77 78 79 128 129 130 131 132 133 134 135 136 137 138 139 140 141 142 143 192 193 194 195 196 197 198 199 200 201 202 203 204 205 206 207
node 0 size: 49055 MB
node 0 free: 46779 MB
node 1 cpus: 16 17 18 19 20 21 22 23 24 25 26 27 28 29 30 31 80 81 82 83 84 85 86 87 88 89 90 91 92 93 94 95 144 145 146 147 148 149 150 151 152 153 154 155 156 157 158 159 208 209 210 211 212 213 214 215 216 217 218 219 220 221 222 223
node 1 size: 49152 MB
node 1 free: 47715 MB
node 2 cpus: 32 33 34 35 36 37 38 39 40 41 42 43 44 45 46 47 96 97 98 99 100 101 102 103 104 105 106 107 108 109 110 111 160 161 162 163 164 165 166 167 168 169 170 171 172 173 174 175 224 225 226 227 228 229 230 231 232 233 234 235 236 237 238 239
node 2 size: 49152 MB
node 2 free: 47619 MB
node 3 cpus: 48 49 50 51 52 53 54 55 56 57 58 59 60 61 62 63 112 113 114 115 116 117 118 119 120 121 122 123 124 125 126 127 176 177 178 179 180 181 182 183 184 185 186 187 188 189 190 191 240 241 242 243 244 245 246 247 248 249 250 251 252 253 254 255
node 3 size: 49152 MB
node 3 free: 46357 MB
node 4 cpus:
node 4 size: 4096 MB
node 4 free: 3829 MB
node 5 cpus:
node 5 size: 4096 MB
node 5 free: 3845 MB
node 6 cpus:
node 6 size: 4096 MB
node 6 free: 3861 MB
node 7 cpus:
node 7 size: 4096 MB
node 7 free: 3894 MB
node distances:
node   0   1   2   3   4   5   6   7 
  0:  10  21  21  21  31  41  41  41 
  1:  21  10  21  21  41  31  41  41 
  2:  21  21  10  21  41  41  31  41 
  3:  21  21  21  10  41  41  41  31 
  4:  31  41  41  41  10  41  41  41 
  5:  41  31  41  41  41  10  41  41 
  6:  41  41  31  41  41  41  10  41 
  7:  41  41  41  31  41  41  41  10 

################################################################################

MKLROOT=/soft/compilers/intel_beta/compilers_and_libraries_2017.0.042/linux/mkl
MANPATH=/soft/compilers/intel_beta/man/common:/soft/compilers/intel_beta/compilers_and_libraries_2017.0.042/linux/mpi/man:/soft/compilers/intel_beta/compilers_and_libraries_2017.0.042/linux/man/en_US:/soft/compilers/intel_beta/documentation_2017/en/debugger//gdb-ia/man/:/soft/compilers/intel_beta/documentation_2017/en/debugger//gdb-mic/man/:/soft/compilers/intel_beta/documentation_2017/en/debugger//gdb-igfx/man/:/usr/local/share/man:/usr/share/man/overrides:/usr/share/man:
XDG_SESSION_ID=1164
HOSTNAME=knl03.ftm.alcf.anl.gov
INTEL_LICENSE_FILE=/soft/compilers/intel_beta/compilers_and_libraries_2017.0.042/linux/licenses:/opt/intel/licenses:/home/perarnau/intel/licenses
IPPROOT=/soft/compilers/intel_beta/compilers_and_libraries_2017.0.042/linux/ipp
SHELL=/bin/bash
TERM=screen
HISTSIZE=1000
GDBSERVER_MIC=/soft/compilers/intel_beta/debugger_2017/gdb/targets/mic/bin/gdbserver
SSH_CLIENT=10.17.6.12 59316 22
LIBRARY_PATH=/soft/compilers/intel_beta/compilers_and_libraries_2017.0.042/linux/ipp/lib/intel64:/soft/compilers/intel_beta/compilers_and_libraries_2017.0.042/linux/compiler/lib/intel64:/soft/compilers/intel_beta/compilers_and_libraries_2017.0.042/linux/mkl/lib/intel64:/soft/compilers/intel_beta/compilers_and_libraries_2017.0.042/linux/tbb/lib/intel64/gcc4.4:/soft/compilers/intel_beta/compilers_and_libraries_2017.0.042/linux/daal/lib/intel64_lin:/soft/compilers/intel_beta/compilers_and_libraries_2017.0.042/linux/daal/../tbb/lib/intel64_lin/gcc4.4
MIC_LD_LIBRARY_PATH=/soft/compilers/intel_beta/compilers_and_libraries_2017.0.042/linux/compiler/lib/mic:/soft/compilers/intel_beta/compilers_and_libraries_2017.0.042/linux/mpi/mic/lib:/soft/compilers/intel_beta/compilers_and_libraries_2017.0.042/linux/compiler/lib/mic:/soft/compilers/intel_beta/compilers_and_libraries_2017.0.042/linux/mkl/lib/mic:/soft/compilers/intel_beta/compilers_and_libraries_2017.0.042/linux/tbb/lib/mic
SSH_TTY=/dev/pts/0
USER=perarnau
LD_LIBRARY_PATH=/soft/compilers/intel_beta/compilers_and_libraries_2017.0.042/linux/compiler/lib/intel64:/soft/compilers/intel_beta/compilers_and_libraries_2017.0.042/linux/compiler/lib/intel64_lin:/soft/compilers/intel_beta/compilers_and_libraries_2017.0.042/linux/mpi/intel64/lib:/soft/compilers/intel_beta/compilers_and_libraries_2017.0.042/linux/mpi/mic/lib:/soft/compilers/intel_beta/compilers_and_libraries_2017.0.042/linux/ipp/lib/intel64:/soft/compilers/intel_beta/compilers_and_libraries_2017.0.042/linux/compiler/lib/intel64:/soft/compilers/intel_beta/compilers_and_libraries_2017.0.042/linux/mkl/lib/intel64:/soft/compilers/intel_beta/compilers_and_libraries_2017.0.042/linux/tbb/lib/intel64/gcc4.4:/soft/compilers/intel_beta/debugger_2017/libipt/intel64/lib:/soft/compilers/intel_beta/compilers_and_libraries_2017.0.042/linux/daal/lib/intel64_lin:/soft/compilers/intel_beta/compilers_and_libraries_2017.0.042/linux/daal/../tbb/lib/intel64_lin/gcc4.4
LS_COLORS=rs=0:di=01;34:ln=01;36:mh=00:pi=40;33:so=01;35:do=01;35:bd=40;33;01:cd=40;33;01:or=40;31;01:mi=01;05;37;41:su=37;41:sg=30;43:ca=30;41:tw=30;42:ow=34;42:st=37;44:ex=01;32:*.tar=01;31:*.tgz=01;31:*.arc=01;31:*.arj=01;31:*.taz=01;31:*.lha=01;31:*.lz4=01;31:*.lzh=01;31:*.lzma=01;31:*.tlz=01;31:*.txz=01;31:*.tzo=01;31:*.t7z=01;31:*.zip=01;31:*.z=01;31:*.Z=01;31:*.dz=01;31:*.gz=01;31:*.lrz=01;31:*.lz=01;31:*.lzo=01;31:*.xz=01;31:*.bz2=01;31:*.bz=01;31:*.tbz=01;31:*.tbz2=01;31:*.tz=01;31:*.deb=01;31:*.rpm=01;31:*.jar=01;31:*.war=01;31:*.ear=01;31:*.sar=01;31:*.rar=01;31:*.alz=01;31:*.ace=01;31:*.zoo=01;31:*.cpio=01;31:*.7z=01;31:*.rz=01;31:*.cab=01;31:*.jpg=01;35:*.jpeg=01;35:*.gif=01;35:*.bmp=01;35:*.pbm=01;35:*.pgm=01;35:*.ppm=01;35:*.tga=01;35:*.xbm=01;35:*.xpm=01;35:*.tif=01;35:*.tiff=01;35:*.png=01;35:*.svg=01;35:*.svgz=01;35:*.mng=01;35:*.pcx=01;35:*.mov=01;35:*.mpg=01;35:*.mpeg=01;35:*.m2v=01;35:*.mkv=01;35:*.webm=01;35:*.ogm=01;35:*.mp4=01;35:*.m4v=01;35:*.mp4v=01;35:*.vob=01;35:*.qt=01;35:*.nuv=01;35:*.wmv=01;35:*.asf=01;35:*.rm=01;35:*.rmvb=01;35:*.flc=01;35:*.avi=01;35:*.fli=01;35:*.flv=01;35:*.gl=01;35:*.dl=01;35:*.xcf=01;35:*.xwd=01;35:*.yuv=01;35:*.cgm=01;35:*.emf=01;35:*.axv=01;35:*.anx=01;35:*.ogv=01;35:*.ogx=01;35:*.aac=01;36:*.au=01;36:*.flac=01;36:*.mid=01;36:*.midi=01;36:*.mka=01;36:*.mp3=01;36:*.mpc=01;36:*.ogg=01;36:*.ra=01;36:*.wav=01;36:*.axa=01;36:*.oga=01;36:*.spx=01;36:*.xspf=01;36:
MIC_LIBRARY_PATH=/soft/compilers/intel_beta/compilers_and_libraries_2017.0.042/linux/compiler/lib/mic:/soft/compilers/intel_beta/compilers_and_libraries_2017.0.042/linux/mpi/mic/lib:/soft/compilers/intel_beta/compilers_and_libraries_2017.0.042/linux/tbb/lib/mic
CPATH=/soft/compilers/intel_beta/compilers_and_libraries_2017.0.042/linux/ipp/include:/soft/compilers/intel_beta/compilers_and_libraries_2017.0.042/linux/mkl/include:/soft/compilers/intel_beta/compilers_and_libraries_2017.0.042/linux/tbb/include:/soft/compilers/intel_beta/compilers_and_libraries_2017.0.042/linux/daal/include
TMUX=/tmp/tmux-6959/default,204523,0
NLSPATH=/soft/compilers/intel_beta/compilers_and_libraries_2017.0.042/linux/compiler/lib/intel64/locale/%l_%t/%N:/soft/compilers/intel_beta/compilers_and_libraries_2017.0.042/linux/mkl/lib/intel64/locale/%l_%t/%N:/soft/compilers/intel_beta/debugger_2017/gdb/intel64_mic/share/locale/%l_%t/%N:/soft/compilers/intel_beta/debugger_2017/gdb/intel64/share/locale/%l_%t/%N
MAIL=/var/spool/mail/perarnau
PATH=../../ooc:/soft/compilers/intel_beta/compilers_and_libraries_2017.0.042/linux/bin/intel64:/soft/compilers/intel_beta/compilers_and_libraries_2017.0.042/linux/mpi/intel64/bin:/soft/compilers/intel_beta/debugger_2017/gdb/intel64_mic/bin:/usr/local/bin:/usr/bin:/usr/local/sbin:/usr/sbin:/home/perarnau/bin:/home/perarnau/bin
TBBROOT=/soft/compilers/intel_beta/compilers_and_libraries_2017.0.042/linux/tbb
PWD=/home/perarnau/mem/membenchs/xps/ooc
GDB_CROSS=/soft/compilers/intel_beta/debugger_2017/gdb/intel64_mic/bin/gdb-mic
LANG=en_US.UTF-8
TMUX_PANE=%0
DAALROOT=/soft/compilers/intel_beta/compilers_and_libraries_2017.0.042/linux/daal
HISTCONTROL=ignoredups
MPM_LAUNCHER=/soft/compilers/intel_beta/debugger_2017/mpm/mic/bin/start_mpm.sh
INTEL_PYTHONHOME=/soft/compilers/intel_beta/debugger_2017/python/intel64/
HOME=/home/perarnau
SHLVL=3
LOGNAME=perarnau
CVS_RSH=ssh
CLASSPATH=/soft/compilers/intel_beta/compilers_and_libraries_2017.0.042/linux/mpi/intel64/lib/mpi.jar:/soft/compilers/intel_beta/compilers_and_libraries_2017.0.042/linux/daal/lib/daal.jar
SSH_CONNECTION=10.17.6.12 59316 10.17.6.107 22
LESSOPEN=||/usr/bin/lesspipe.sh %s
INFOPATH=/soft/compilers/intel_beta/documentation_2017/en/debugger//gdb-ia/info/:/soft/compilers/intel_beta/documentation_2017/en/debugger//gdb-mic/info/:/soft/compilers/intel_beta/documentation_2017/en/debugger//gdb-igfx/info/
XDG_RUNTIME_DIR=/run/user/6959
I_MPI_ROOT=/soft/compilers/intel_beta/compilers_and_libraries_2017.0.042/linux/mpi
_=/usr/bin/env
core file size          (blocks, -c) 0
data seg size           (kbytes, -d) unlimited
scheduling priority             (-e) 0
file size               (blocks, -f) unlimited
pending signals                 (-i) 837693
max locked memory       (kbytes, -l) 64
max memory size         (kbytes, -m) unlimited
open files                      (-n) 4096
pipe size            (512 bytes, -p) 8
POSIX message queues     (bytes, -q) 819200
real-time priority              (-r) 0
stack size              (kbytes, -s) 8192
cpu time               (seconds, -t) unlimited
max user processes              (-u) 4096
virtual memory          (kbytes, -v) unlimited
file locks                      (-x) unlimited

################################################################################

ooc 1 64 1
ooc: add 33554432 64 32 1 0 120496525
ooc 1 64 2
ooc: add 33554432 64 32 1 0 115664423
ooc 1 64 3
ooc: add 33554432 64 32 1 0 127317471
ooc 1 64 4
ooc: add 33554432 64 32 1 0 132301693
ooc 1 64 5
ooc: add 33554432 64 32 1 0 128801253
ooc 1 64 6
ooc: add 33554432 64 32 1 0 113369635
ooc 1 64 7
ooc: add 33554432 64 32 1 0 128172507
ooc 1 64 8
ooc: add 33554432 64 32 1 0 121386431
ooc 1 64 9
ooc: add 33554432 64 32 1 0 135326950
ooc 1 64 10
ooc: add 33554432 64 32 1 0 119896766
ooc 1 64 11
ooc: add 33554432 64 32 1 0 120270866
ooc 1 64 12
ooc: add 33554432 64 32 1 0 133544441
ooc 1 64 13
ooc: add 33554432 64 32 1 0 130239230
ooc 1 64 14
ooc: add 33554432 64 32 1 0 115968852
ooc 1 64 15
ooc: add 33554432 64 32 1 0 129981387
ooc 1 64 16
ooc: add 33554432 64 32 1 0 119196946
ooc 1 64 17
ooc: add 33554432 64 32 1 0 119467558
ooc 1 64 18
ooc: add 33554432 64 32 1 0 135961439
ooc 1 64 19
ooc: add 33554432 64 32 1 0 127682380
ooc 1 64 20
ooc: add 33554432 64 32 1 0 131925047
ooc 1 64 21
ooc: add 33554432 64 32 1 0 132335009
ooc 1 64 22
ooc: add 33554432 64 32 1 0 128431623
ooc 1 64 23
ooc: add 33554432 64 32 1 0 122486461
ooc 1 64 24
ooc: add 33554432 64 32 1 0 116298821
ooc 1 64 25
ooc: add 33554432 64 32 1 0 133466983
ooc 1 64 26
ooc: add 33554432 64 32 1 0 127824457
ooc 1 64 27
ooc: add 33554432 64 32 1 0 129152481
ooc 1 64 28
ooc: add 33554432 64 32 1 0 121219257
ooc 1 64 29
ooc: add 33554432 64 32 1 0 131507046
ooc 1 64 30
ooc: add 33554432 64 32 1 0 134812056
ooc 2 64 1
ooc: add 33554432 64 32 2 0 207768293
ooc 2 64 2
ooc: add 33554432 64 32 2 0 215052123
ooc 2 64 3
ooc: add 33554432 64 32 2 0 185916100
ooc 2 64 4
ooc: add 33554432 64 32 2 0 237920463
ooc 2 64 5
ooc: add 33554432 64 32 2 0 226999048
ooc 2 64 6
ooc: add 33554432 64 32 2 0 215772159
ooc 2 64 7
ooc: add 33554432 64 32 2 0 205646032
ooc 2 64 8
ooc: add 33554432 64 32 2 0 202124404
ooc 2 64 9
ooc: add 33554432 64 32 2 0 231266281
ooc 2 64 10
ooc: add 33554432 64 32 2 0 230466963
ooc 2 64 11
ooc: add 33554432 64 32 2 0 223380085
ooc 2 64 12
ooc: add 33554432 64 32 2 0 243847704
ooc 2 64 13
ooc: add 33554432 64 32 2 0 219872519
ooc 2 64 14
ooc: add 33554432 64 32 2 0 234224755
ooc 2 64 15
ooc: add 33554432 64 32 2 0 204336752
ooc 2 64 16
ooc: add 33554432 64 32 2 0 208401629
ooc 2 64 17
ooc: add 33554432 64 32 2 0 239535167
ooc 2 64 18
ooc: add 33554432 64 32 2 0 201238456
ooc 2 64 19
ooc: add 33554432 64 32 2 0 204703504
ooc 2 64 20
ooc: add 33554432 64 32 2 0 242823730
ooc 2 64 21
ooc: add 33554432 64 32 2 0 237984200
ooc 2 64 22
ooc: add 33554432 64 32 2 0 206080591
ooc 2 64 23
ooc: add 33554432 64 32 2 0 197222039
ooc 2 64 24
ooc: add 33554432 64 32 2 0 239018949
ooc 2 64 25
ooc: add 33554432 64 32 2 0 207013888
ooc 2 64 26
ooc: add 33554432 64 32 2 0 209481382
ooc 2 64 27
ooc: add 33554432 64 32 2 0 183481992
ooc 2 64 28
ooc: add 33554432 64 32 2 0 213409967
ooc 2 64 29
ooc: add 33554432 64 32 2 0 205391818
ooc 2 64 30
ooc: add 33554432 64 32 2 0 205163102
ooc 3 64 1
ooc: add 33554432 64 32 3 0 309379778
ooc 3 64 2
ooc: add 33554432 64 32 3 0 297741383
ooc 3 64 3
ooc: add 33554432 64 32 3 0 311778915
ooc 3 64 4
ooc: add 33554432 64 32 3 0 283554598
ooc 3 64 5
ooc: add 33554432 64 32 3 0 280049207
ooc 3 64 6
ooc: add 33554432 64 32 3 0 281299171
ooc 3 64 7
ooc: add 33554432 64 32 3 0 332926017
ooc 3 64 8
ooc: add 33554432 64 32 3 0 290453413
ooc 3 64 9
ooc: add 33554432 64 32 3 0 340221564
ooc 3 64 10
ooc: add 33554432 64 32 3 0 348276418
ooc 3 64 11
ooc: add 33554432 64 32 3 0 242857918
ooc 3 64 12
ooc: add 33554432 64 32 3 0 311024380
ooc 3 64 13
ooc: add 33554432 64 32 3 0 347369262
ooc 3 64 14
ooc: add 33554432 64 32 3 0 305163111
ooc 3 64 15
ooc: add 33554432 64 32 3 0 317738711
ooc 3 64 16
ooc: add 33554432 64 32 3 0 342144827
ooc 3 64 17
ooc: add 33554432 64 32 3 0 292404400
ooc 3 64 18
ooc: add 33554432 64 32 3 0 341398050
ooc 3 64 19
ooc: add 33554432 64 32 3 0 332400929
ooc 3 64 20
ooc: add 33554432 64 32 3 0 301624322
ooc 3 64 21
ooc: add 33554432 64 32 3 0 342109917
ooc 3 64 22
ooc: add 33554432 64 32 3 0 337636229
ooc 3 64 23
ooc: add 33554432 64 32 3 0 342084820
ooc 3 64 24
ooc: add 33554432 64 32 3 0 340378946
ooc 3 64 25
ooc: add 33554432 64 32 3 0 341733722
ooc 3 64 26
ooc: add 33554432 64 32 3 0 282962325
ooc 3 64 27
ooc: add 33554432 64 32 3 0 351240604
ooc 3 64 28
ooc: add 33554432 64 32 3 0 353088575
ooc 3 64 29
ooc: add 33554432 64 32 3 0 347330934
ooc 3 64 30
ooc: add 33554432 64 32 3 0 301608727
ooc 4 64 1
ooc: add 33554432 64 32 4 0 447543562
ooc 4 64 2
ooc: add 33554432 64 32 4 0 453013361
ooc 4 64 3
ooc: add 33554432 64 32 4 0 451697264
ooc 4 64 4
ooc: add 33554432 64 32 4 0 381836125
ooc 4 64 5
ooc: add 33554432 64 32 4 0 452436775
ooc 4 64 6
ooc: add 33554432 64 32 4 0 448080266
ooc 4 64 7
ooc: add 33554432 64 32 4 0 444882712
ooc 4 64 8
ooc: add 33554432 64 32 4 0 459283821
ooc 4 64 9
ooc: add 33554432 64 32 4 0 375802420
ooc 4 64 10
ooc: add 33554432 64 32 4 0 460091619
ooc 4 64 11
ooc: add 33554432 64 32 4 0 381540506
ooc 4 64 12
ooc: add 33554432 64 32 4 0 364150203
ooc 4 64 13
ooc: add 33554432 64 32 4 0 460278188
ooc 4 64 14
ooc: add 33554432 64 32 4 0 379670816
ooc 4 64 15
ooc: add 33554432 64 32 4 0 377237780
ooc 4 64 16
ooc: add 33554432 64 32 4 0 455351006
ooc 4 64 17
ooc: add 33554432 64 32 4 0 454095059
ooc 4 64 18
ooc: add 33554432 64 32 4 0 449937697
ooc 4 64 19
ooc: add 33554432 64 32 4 0 425800680
ooc 4 64 20
ooc: add 33554432 64 32 4 0 393365059
ooc 4 64 21
ooc: add 33554432 64 32 4 0 365829655
ooc 4 64 22
ooc: add 33554432 64 32 4 0 451763386
ooc 4 64 23
ooc: add 33554432 64 32 4 0 391859305
ooc 4 64 24
ooc: add 33554432 64 32 4 0 393778439
ooc 4 64 25
ooc: add 33554432 64 32 4 0 365155555
ooc 4 64 26
ooc: add 33554432 64 32 4 0 453680185
ooc 4 64 27
ooc: add 33554432 64 32 4 0 460050444
ooc 4 64 28
ooc: add 33554432 64 32 4 0 451433217
ooc 4 64 29
ooc: add 33554432 64 32 4 0 460917538
ooc 4 64 30
ooc: add 33554432 64 32 4 0 449783844
ooc 5 64 1
ooc: add 33554432 64 32 5 0 564967049
ooc 5 64 2
ooc: add 33554432 64 32 5 0 564049580
ooc 5 64 3
ooc: add 33554432 64 32 5 0 555686667
ooc 5 64 4
ooc: add 33554432 64 32 5 0 560342325
ooc 5 64 5
ooc: add 33554432 64 32 5 0 464225837
ooc 5 64 6
ooc: add 33554432 64 32 5 0 557709420
ooc 5 64 7
ooc: add 33554432 64 32 5 0 438453799
ooc 5 64 8
ooc: add 33554432 64 32 5 0 563960546
ooc 5 64 9
ooc: add 33554432 64 32 5 0 558124013
ooc 5 64 10
ooc: add 33554432 64 32 5 0 326947749
ooc 5 64 11
ooc: add 33554432 64 32 5 0 551756710
ooc 5 64 12
ooc: add 33554432 64 32 5 0 472192908
ooc 5 64 13
ooc: add 33554432 64 32 5 0 555418020
ooc 5 64 14
ooc: add 33554432 64 32 5 0 550806375
ooc 5 64 15
ooc: add 33554432 64 32 5 0 554176826
ooc 5 64 16
ooc: add 33554432 64 32 5 0 564219852
ooc 5 64 17
ooc: add 33554432 64 32 5 0 551540483
ooc 5 64 18
ooc: add 33554432 64 32 5 0 445276799
ooc 5 64 19
ooc: add 33554432 64 32 5 0 552774270
ooc 5 64 20
ooc: add 33554432 64 32 5 0 447136115
ooc 5 64 21
ooc: add 33554432 64 32 5 0 548466814
ooc 5 64 22
ooc: add 33554432 64 32 5 0 457531892
ooc 5 64 23
ooc: add 33554432 64 32 5 0 566013606
ooc 5 64 24
ooc: add 33554432 64 32 5 0 565587737
ooc 5 64 25
ooc: add 33554432 64 32 5 0 350524328
ooc 5 64 26
ooc: add 33554432 64 32 5 0 466125034
ooc 5 64 27
ooc: add 33554432 64 32 5 0 551606374
ooc 5 64 28
ooc: add 33554432 64 32 5 0 470023960
ooc 5 64 29
ooc: add 33554432 64 32 5 0 548364178
ooc 5 64 30
ooc: add 33554432 64 32 5 0 566319791
ooc 6 64 1
ooc: add 33554432 64 32 6 0 660614299
ooc 6 64 2
ooc: add 33554432 64 32 6 0 600677402
ooc 6 64 3
ooc: add 33554432 64 32 6 0 666957216
ooc 6 64 4
ooc: add 33554432 64 32 6 0 549513542
ooc 6 64 5
ooc: add 33554432 64 32 6 0 668854159
ooc 6 64 6
ooc: add 33554432 64 32 6 0 553972095
ooc 6 64 7
ooc: add 33554432 64 32 6 0 678894909
ooc 6 64 8
ooc: add 33554432 64 32 6 0 667588518
ooc 6 64 9
ooc: add 33554432 64 32 6 0 656531209
ooc 6 64 10
ooc: add 33554432 64 32 6 0 617576335
ooc 6 64 11
ooc: add 33554432 64 32 6 0 531206582
ooc 6 64 12
ooc: add 33554432 64 32 6 0 660013407
ooc 6 64 13
ooc: add 33554432 64 32 6 0 675883294
ooc 6 64 14
ooc: add 33554432 64 32 6 0 576693878
ooc 6 64 15
ooc: add 33554432 64 32 6 0 528035218
ooc 6 64 16
ooc: add 33554432 64 32 6 0 537088168
ooc 6 64 17
ooc: add 33554432 64 32 6 0 519281718
ooc 6 64 18
ooc: add 33554432 64 32 6 0 549646568
ooc 6 64 19
ooc: add 33554432 64 32 6 0 658303114
ooc 6 64 20
ooc: add 33554432 64 32 6 0 561730848
ooc 6 64 21
ooc: add 33554432 64 32 6 0 486383652
ooc 6 64 22
ooc: add 33554432 64 32 6 0 657596359
ooc 6 64 23
ooc: add 33554432 64 32 6 0 617402636
ooc 6 64 24
ooc: add 33554432 64 32 6 0 667354981
ooc 6 64 25
ooc: add 33554432 64 32 6 0 547316659
ooc 6 64 26
ooc: add 33554432 64 32 6 0 605367068
ooc 6 64 27
ooc: add 33554432 64 32 6 0 551555838
ooc 6 64 28
ooc: add 33554432 64 32 6 0 673968029
ooc 6 64 29
ooc: add 33554432 64 32 6 0 658502523
ooc 6 64 30
ooc: add 33554432 64 32 6 0 658920174
ooc 7 64 1
ooc: add 33554432 64 32 7 0 715503708
ooc 7 64 2
ooc: add 33554432 64 32 7 0 766250871
ooc 7 64 3
ooc: add 33554432 64 32 7 0 759814910
ooc 7 64 4
ooc: add 33554432 64 32 7 0 759149329
ooc 7 64 5
ooc: add 33554432 64 32 7 0 765203051
ooc 7 64 6
ooc: add 33554432 64 32 7 0 675228307
ooc 7 64 7
ooc: add 33554432 64 32 7 0 779798977
ooc 7 64 8
ooc: add 33554432 64 32 7 0 760232601
ooc 7 64 9
ooc: add 33554432 64 32 7 0 681796853
ooc 7 64 10
ooc: add 33554432 64 32 7 0 789736511
ooc 7 64 11
ooc: add 33554432 64 32 7 0 625458993
ooc 7 64 12
ooc: add 33554432 64 32 7 0 601637641
ooc 7 64 13
ooc: add 33554432 64 32 7 0 644546588
ooc 7 64 14
ooc: add 33554432 64 32 7 0 755067994
ooc 7 64 15
ooc: add 33554432 64 32 7 0 772474844
ooc 7 64 16
ooc: add 33554432 64 32 7 0 671391042
ooc 7 64 17
ooc: add 33554432 64 32 7 0 779151969
ooc 7 64 18
ooc: add 33554432 64 32 7 0 644091913
ooc 7 64 19
ooc: add 33554432 64 32 7 0 688105100
ooc 7 64 20
ooc: add 33554432 64 32 7 0 783475132
ooc 7 64 21
ooc: add 33554432 64 32 7 0 783392942
ooc 7 64 22
ooc: add 33554432 64 32 7 0 765247935
ooc 7 64 23
ooc: add 33554432 64 32 7 0 783372526
ooc 7 64 24
ooc: add 33554432 64 32 7 0 629071751
ooc 7 64 25
ooc: add 33554432 64 32 7 0 633871259
ooc 7 64 26
ooc: add 33554432 64 32 7 0 770275717
ooc 7 64 27
ooc: add 33554432 64 32 7 0 636654629
ooc 7 64 28
ooc: add 33554432 64 32 7 0 642708542
ooc 7 64 29
ooc: add 33554432 64 32 7 0 700906780
ooc 7 64 30
ooc: add 33554432 64 32 7 0 683373999
ooc 8 64 1
ooc: add 33554432 64 32 8 0 786311575
ooc 8 64 2
ooc: add 33554432 64 32 8 0 892871740
ooc 8 64 3
ooc: add 33554432 64 32 8 0 704200274
ooc 8 64 4
ooc: add 33554432 64 32 8 0 713782670
ooc 8 64 5
ooc: add 33554432 64 32 8 0 870189629
ooc 8 64 6
ooc: add 33554432 64 32 8 0 747960298
ooc 8 64 7
ooc: add 33554432 64 32 8 0 874342328
ooc 8 64 8
ooc: add 33554432 64 32 8 0 864579307
ooc 8 64 9
ooc: add 33554432 64 32 8 0 877259427
ooc 8 64 10
ooc: add 33554432 64 32 8 0 858122287
ooc 8 64 11
ooc: add 33554432 64 32 8 0 871250258
ooc 8 64 12
ooc: add 33554432 64 32 8 0 872464841
ooc 8 64 13
ooc: add 33554432 64 32 8 0 729432530
ooc 8 64 14
ooc: add 33554432 64 32 8 0 864026034
ooc 8 64 15
ooc: add 33554432 64 32 8 0 888590525
ooc 8 64 16
ooc: add 33554432 64 32 8 0 721941865
ooc 8 64 17
ooc: add 33554432 64 32 8 0 738750057
ooc 8 64 18
ooc: add 33554432 64 32 8 0 838243071
ooc 8 64 19
ooc: add 33554432 64 32 8 0 757071230
ooc 8 64 20
ooc: add 33554432 64 32 8 0 816684142
ooc 8 64 21
ooc: add 33554432 64 32 8 0 849630579
ooc 8 64 22
ooc: add 33554432 64 32 8 0 675726162
ooc 8 64 23
ooc: add 33554432 64 32 8 0 869501827
ooc 8 64 24
ooc: add 33554432 64 32 8 0 766806168
ooc 8 64 25
ooc: add 33554432 64 32 8 0 790513458
ooc 8 64 26
ooc: add 33554432 64 32 8 0 885995918
ooc 8 64 27
ooc: add 33554432 64 32 8 0 760633974
ooc 8 64 28
ooc: add 33554432 64 32 8 0 787958452
ooc 8 64 29
ooc: add 33554432 64 32 8 0 789837834
ooc 8 64 30
ooc: add 33554432 64 32 8 0 838317042
ooc 9 64 1
ooc: add 33554432 64 32 9 0 770060443
ooc 9 64 2
ooc: add 33554432 64 32 9 0 895099514
ooc 9 64 3
ooc: add 33554432 64 32 9 0 699195325
ooc 9 64 4
ooc: add 33554432 64 32 9 0 935555540
ooc 9 64 5
ooc: add 33554432 64 32 9 0 876229989
ooc 9 64 6
ooc: add 33554432 64 32 9 0 885595758
ooc 9 64 7
ooc: add 33554432 64 32 9 0 919605210
ooc 9 64 8
ooc: add 33554432 64 32 9 0 875035011
ooc 9 64 9
ooc: add 33554432 64 32 9 0 695982826
ooc 9 64 10
ooc: add 33554432 64 32 9 0 695648738
ooc 9 64 11
ooc: add 33554432 64 32 9 0 860092368
ooc 9 64 12
ooc: add 33554432 64 32 9 0 861280761
ooc 9 64 13
ooc: add 33554432 64 32 9 0 965035485
ooc 9 64 14
ooc: add 33554432 64 32 9 0 691386657
ooc 9 64 15
ooc: add 33554432 64 32 9 0 856262070
ooc 9 64 16
ooc: add 33554432 64 32 9 0 823461599
ooc 9 64 17
ooc: add 33554432 64 32 9 0 817546556
ooc 9 64 18
ooc: add 33554432 64 32 9 0 1000090491
ooc 9 64 19
ooc: add 33554432 64 32 9 0 996655842
ooc 9 64 20
ooc: add 33554432 64 32 9 0 879551909
ooc 9 64 21
ooc: add 33554432 64 32 9 0 886394084
ooc 9 64 22
ooc: add 33554432 64 32 9 0 628280883
ooc 9 64 23
ooc: add 33554432 64 32 9 0 974979673
ooc 9 64 24
ooc: add 33554432 64 32 9 0 814576165
ooc 9 64 25
ooc: add 33554432 64 32 9 0 976465491
ooc 9 64 26
ooc: add 33554432 64 32 9 0 998732197
ooc 9 64 27
ooc: add 33554432 64 32 9 0 969657615
ooc 9 64 28
ooc: add 33554432 64 32 9 0 846843520
ooc 9 64 29
ooc: add 33554432 64 32 9 0 873754497
ooc 9 64 30
ooc: add 33554432 64 32 9 0 839874393
ooc 10 64 1
ooc: add 33554432 64 32 10 0 1110906884
ooc 10 64 2
ooc: add 33554432 64 32 10 0 693490525
ooc 10 64 3
ooc: add 33554432 64 32 10 0 1103216650
ooc 10 64 4
ooc: add 33554432 64 32 10 0 950187871
ooc 10 64 5
ooc: add 33554432 64 32 10 0 918020013
ooc 10 64 6
ooc: add 33554432 64 32 10 0 984536471
ooc 10 64 7
ooc: add 33554432 64 32 10 0 1107163486
ooc 10 64 8
ooc: add 33554432 64 32 10 0 1084469276
ooc 10 64 9
ooc: add 33554432 64 32 10 0 1110933055
ooc 10 64 10
ooc: add 33554432 64 32 10 0 1081956487
ooc 10 64 11
ooc: add 33554432 64 32 10 0 1089234033
ooc 10 64 12
ooc: add 33554432 64 32 10 0 1104943370
ooc 10 64 13
ooc: add 33554432 64 32 10 0 1084018289
ooc 10 64 14
ooc: add 33554432 64 32 10 0 1089499323
ooc 10 64 15
ooc: add 33554432 64 32 10 0 1083248489
ooc 10 64 16
ooc: add 33554432 64 32 10 0 856737232
ooc 10 64 17
ooc: add 33554432 64 32 10 0 919502653
ooc 10 64 18
ooc: add 33554432 64 32 10 0 1090606059
ooc 10 64 19
ooc: add 33554432 64 32 10 0 1104013943
ooc 10 64 20
ooc: add 33554432 64 32 10 0 1077630950
ooc 10 64 21
ooc: add 33554432 64 32 10 0 971134201
ooc 10 64 22
ooc: add 33554432 64 32 10 0 848382840
ooc 10 64 23
ooc: add 33554432 64 32 10 0 958027870
ooc 10 64 24
ooc: add 33554432 64 32 10 0 959666268
ooc 10 64 25
ooc: add 33554432 64 32 10 0 974354967
ooc 10 64 26
ooc: add 33554432 64 32 10 0 865423248
ooc 10 64 27
ooc: add 33554432 64 32 10 0 907507619
ooc 10 64 28
ooc: add 33554432 64 32 10 0 1086479089
ooc 10 64 29
ooc: add 33554432 64 32 10 0 1099325471
ooc 10 64 30
ooc: add 33554432 64 32 10 0 1093975759
ooc 11 64 1
ooc: add 33554432 64 32 11 0 1094494752
ooc 11 64 2
ooc: add 33554432 64 32 11 0 1211076174
ooc 11 64 3
ooc: add 33554432 64 32 11 0 1077959276
ooc 11 64 4
ooc: add 33554432 64 32 11 0 1066497998
ooc 11 64 5
ooc: add 33554432 64 32 11 0 1064144195
ooc 11 64 6
ooc: add 33554432 64 32 11 0 990037232
ooc 11 64 7
ooc: add 33554432 64 32 11 0 1211446766
ooc 11 64 8
ooc: add 33554432 64 32 11 0 948796571
ooc 11 64 9
ooc: add 33554432 64 32 11 0 1133668770
ooc 11 64 10
ooc: add 33554432 64 32 11 0 980510854
ooc 11 64 11
ooc: add 33554432 64 32 11 0 1181641814
ooc 11 64 12
ooc: add 33554432 64 32 11 0 986714200
ooc 11 64 13
ooc: add 33554432 64 32 11 0 1185621456
ooc 11 64 14
ooc: add 33554432 64 32 11 0 1187873515
ooc 11 64 15
ooc: add 33554432 64 32 11 0 1004647751
ooc 11 64 16
ooc: add 33554432 64 32 11 0 932390713
ooc 11 64 17
ooc: add 33554432 64 32 11 0 1010751859
ooc 11 64 18
ooc: add 33554432 64 32 11 0 1202208210
ooc 11 64 19
ooc: add 33554432 64 32 11 0 996973784
ooc 11 64 20
ooc: add 33554432 64 32 11 0 1212487369
ooc 11 64 21
ooc: add 33554432 64 32 11 0 1007759377
ooc 11 64 22
ooc: add 33554432 64 32 11 0 1183983689
ooc 11 64 23
ooc: add 33554432 64 32 11 0 1077354555
ooc 11 64 24
ooc: add 33554432 64 32 11 0 985518500
ooc 11 64 25
ooc: add 33554432 64 32 11 0 1187190043
ooc 11 64 26
ooc: add 33554432 64 32 11 0 1002410467
ooc 11 64 27
ooc: add 33554432 64 32 11 0 1209778189
ooc 11 64 28
ooc: add 33554432 64 32 11 0 1174669540
ooc 11 64 29
ooc: add 33554432 64 32 11 0 1150579470
ooc 11 64 30
ooc: add 33554432 64 32 11 0 1190245460
ooc 12 64 1
ooc: add 33554432 64 32 12 0 1044736935
ooc 12 64 2
ooc: add 33554432 64 32 12 0 1284922338
ooc 12 64 3
ooc: add 33554432 64 32 12 0 1285455162
ooc 12 64 4
ooc: add 33554432 64 32 12 0 1040362735
ooc 12 64 5
ooc: add 33554432 64 32 12 0 976649073
ooc 12 64 6
ooc: add 33554432 64 32 12 0 1047289676
ooc 12 64 7
ooc: add 33554432 64 32 12 0 1145522491
ooc 12 64 8
ooc: add 33554432 64 32 12 0 1151810491
ooc 12 64 9
ooc: add 33554432 64 32 12 0 1288387777
ooc 12 64 10
ooc: add 33554432 64 32 12 0 1290653547
ooc 12 64 11
ooc: add 33554432 64 32 12 0 1296870815
ooc 12 64 12
ooc: add 33554432 64 32 12 0 849688142
ooc 12 64 13
ooc: add 33554432 64 32 12 0 1290617716
ooc 12 64 14
ooc: add 33554432 64 32 12 0 1295043754
ooc 12 64 15
ooc: add 33554432 64 32 12 0 1098242572
ooc 12 64 16
ooc: add 33554432 64 32 12 0 1216930838
ooc 12 64 17
ooc: add 33554432 64 32 12 0 1291309516
ooc 12 64 18
ooc: add 33554432 64 32 12 0 1330961714
ooc 12 64 19
ooc: add 33554432 64 32 12 0 1312204810
ooc 12 64 20
ooc: add 33554432 64 32 12 0 1291504074
ooc 12 64 21
ooc: add 33554432 64 32 12 0 1292774566
ooc 12 64 22
ooc: add 33554432 64 32 12 0 1089409218
ooc 12 64 23
ooc: add 33554432 64 32 12 0 1139192774
ooc 12 64 24
ooc: add 33554432 64 32 12 0 1295352013
ooc 12 64 25
ooc: add 33554432 64 32 12 0 1279264126
ooc 12 64 26
ooc: add 33554432 64 32 12 0 1228970245
ooc 12 64 27
ooc: add 33554432 64 32 12 0 1285138745
ooc 12 64 28
ooc: add 33554432 64 32 12 0 1286434736
ooc 12 64 29
ooc: add 33554432 64 32 12 0 1292327197
ooc 12 64 30
ooc: add 33554432 64 32 12 0 1293789540
ooc 13 64 1
ooc: add 33554432 64 32 13 0 925074579
ooc 13 64 2
ooc: add 33554432 64 32 13 0 1363453997
ooc 13 64 3
ooc: add 33554432 64 32 13 0 1387049038
ooc 13 64 4
ooc: add 33554432 64 32 13 0 1112625148
ooc 13 64 5
ooc: add 33554432 64 32 13 0 1250233965
ooc 13 64 6
ooc: add 33554432 64 32 13 0 1363089028
ooc 13 64 7
ooc: add 33554432 64 32 13 0 1240382340
ooc 13 64 8
ooc: add 33554432 64 32 13 0 1246608097
ooc 13 64 9
ooc: add 33554432 64 32 13 0 1184243156
ooc 13 64 10
ooc: add 33554432 64 32 13 0 1401032216
ooc 13 64 11
ooc: add 33554432 64 32 13 0 1376594456
ooc 13 64 12
ooc: add 33554432 64 32 13 0 1389043264
ooc 13 64 13
ooc: add 33554432 64 32 13 0 1358969564
ooc 13 64 14
ooc: add 33554432 64 32 13 0 1386143946
ooc 13 64 15
ooc: add 33554432 64 32 13 0 1173327876
ooc 13 64 16
ooc: add 33554432 64 32 13 0 1393604504
ooc 13 64 17
ooc: add 33554432 64 32 13 0 1253510821
ooc 13 64 18
ooc: add 33554432 64 32 13 0 1273287031
ooc 13 64 19
ooc: add 33554432 64 32 13 0 1120072364
ooc 13 64 20
ooc: add 33554432 64 32 13 0 1270047441
ooc 13 64 21
ooc: add 33554432 64 32 13 0 1156032080
ooc 13 64 22
ooc: add 33554432 64 32 13 0 1224045350
ooc 13 64 23
ooc: add 33554432 64 32 13 0 1213695519
ooc 13 64 24
ooc: add 33554432 64 32 13 0 1259723419
ooc 13 64 25
ooc: add 33554432 64 32 13 0 1357446261
ooc 13 64 26
ooc: add 33554432 64 32 13 0 1413055596
ooc 13 64 27
ooc: add 33554432 64 32 13 0 1294276730
ooc 13 64 28
ooc: add 33554432 64 32 13 0 1180902825
ooc 13 64 29
ooc: add 33554432 64 32 13 0 1241123204
ooc 13 64 30
ooc: add 33554432 64 32 13 0 1376125558
ooc 14 64 1
ooc: add 33554432 64 32 14 0 1396563619
ooc 14 64 2
ooc: add 33554432 64 32 14 0 1240499700
ooc 14 64 3
ooc: add 33554432 64 32 14 0 1410969759
ooc 14 64 4
ooc: add 33554432 64 32 14 0 1359607271
ooc 14 64 5
ooc: add 33554432 64 32 14 0 1362873813
ooc 14 64 6
ooc: add 33554432 64 32 14 0 1305746318
ooc 14 64 7
ooc: add 33554432 64 32 14 0 1416306151
ooc 14 64 8
ooc: add 33554432 64 32 14 0 1480036582
ooc 14 64 9
ooc: add 33554432 64 32 14 0 1208801384
ooc 14 64 10
ooc: add 33554432 64 32 14 0 1243088123
ooc 14 64 11
ooc: add 33554432 64 32 14 0 1450951595
ooc 14 64 12
ooc: add 33554432 64 32 14 0 1272104783
ooc 14 64 13
ooc: add 33554432 64 32 14 0 1465226954
ooc 14 64 14
ooc: add 33554432 64 32 14 0 1257243877
ooc 14 64 15
ooc: add 33554432 64 32 14 0 1466351691
ooc 14 64 16
ooc: add 33554432 64 32 14 0 1469287212
ooc 14 64 17
ooc: add 33554432 64 32 14 0 1301730713
ooc 14 64 18
ooc: add 33554432 64 32 14 0 1483605529
ooc 14 64 19
ooc: add 33554432 64 32 14 0 1298527697
ooc 14 64 20
ooc: add 33554432 64 32 14 0 1461332058
ooc 14 64 21
ooc: add 33554432 64 32 14 0 1388693651
ooc 14 64 22
ooc: add 33554432 64 32 14 0 1399144234
ooc 14 64 23
ooc: add 33554432 64 32 14 0 1211734789
ooc 14 64 24
ooc: add 33554432 64 32 14 0 1416910892
ooc 14 64 25
ooc: add 33554432 64 32 14 0 1390761727
ooc 14 64 26
ooc: add 33554432 64 32 14 0 1278904009
ooc 14 64 27
ooc: add 33554432 64 32 14 0 1139900263
ooc 14 64 28
ooc: add 33554432 64 32 14 0 1268647382
ooc 14 64 29
ooc: add 33554432 64 32 14 0 1466958126
ooc 14 64 30
ooc: add 33554432 64 32 14 0 1278051147
ooc 15 64 1
ooc: add 33554432 64 32 15 0 1547734627
ooc 15 64 2
ooc: add 33554432 64 32 15 0 1544156208
ooc 15 64 3
ooc: add 33554432 64 32 15 0 1379466762
ooc 15 64 4
ooc: add 33554432 64 32 15 0 1448282658
ooc 15 64 5
ooc: add 33554432 64 32 15 0 1377975172
ooc 15 64 6
ooc: add 33554432 64 32 15 0 1398943082
ooc 15 64 7
ooc: add 33554432 64 32 15 0 1364244396
ooc 15 64 8
ooc: add 33554432 64 32 15 0 1252205420
ooc 15 64 9
ooc: add 33554432 64 32 15 0 1390952076
ooc 15 64 10
ooc: add 33554432 64 32 15 0 1502812731
ooc 15 64 11
ooc: add 33554432 64 32 15 0 1332420039
ooc 15 64 12
ooc: add 33554432 64 32 15 0 1437029319
ooc 15 64 13
ooc: add 33554432 64 32 15 0 1567660631
ooc 15 64 14
ooc: add 33554432 64 32 15 0 1427148696
ooc 15 64 15
ooc: add 33554432 64 32 15 0 1543704870
ooc 15 64 16
ooc: add 33554432 64 32 15 0 1388595616
ooc 15 64 17
ooc: add 33554432 64 32 15 0 1307712289
ooc 15 64 18
ooc: add 33554432 64 32 15 0 1274468388
ooc 15 64 19
ooc: add 33554432 64 32 15 0 1071463469
ooc 15 64 20
ooc: add 33554432 64 32 15 0 1440931784
ooc 15 64 21
ooc: add 33554432 64 32 15 0 1472551630
ooc 15 64 22
ooc: add 33554432 64 32 15 0 1454646033
ooc 15 64 23
ooc: add 33554432 64 32 15 0 1220895787
ooc 15 64 24
ooc: add 33554432 64 32 15 0 1356814078
ooc 15 64 25
ooc: add 33554432 64 32 15 0 1480580744
ooc 15 64 26
ooc: add 33554432 64 32 15 0 1417806974
ooc 15 64 27
ooc: add 33554432 64 32 15 0 1571641997
ooc 15 64 28
ooc: add 33554432 64 32 15 0 1240348353
ooc 15 64 29
ooc: add 33554432 64 32 15 0 1405230912
ooc 15 64 30
ooc: add 33554432 64 32 15 0 1558441119
ooc 16 64 1
ooc: add 33554432 64 32 16 0 1374510896
ooc 16 64 2
ooc: add 33554432 64 32 16 0 1411111266
ooc 16 64 3
ooc: add 33554432 64 32 16 0 1367804834
ooc 16 64 4
ooc: add 33554432 64 32 16 0 1303823617
ooc 16 64 5
ooc: add 33554432 64 32 16 0 1226754972
ooc 16 64 6
ooc: add 33554432 64 32 16 0 1634374854
ooc 16 64 7
ooc: add 33554432 64 32 16 0 1403811288
ooc 16 64 8
ooc: add 33554432 64 32 16 0 1239929640
ooc 16 64 9
ooc: add 33554432 64 32 16 0 1011716290
ooc 16 64 10
ooc: add 33554432 64 32 16 0 1432618055
ooc 16 64 11
ooc: add 33554432 64 32 16 0 1459289511
ooc 16 64 12
ooc: add 33554432 64 32 16 0 1524352847
ooc 16 64 13
ooc: add 33554432 64 32 16 0 1568830352
ooc 16 64 14
ooc: add 33554432 64 32 16 0 1542857171
ooc 16 64 15
ooc: add 33554432 64 32 16 0 1098645760
ooc 16 64 16
ooc: add 33554432 64 32 16 0 1516184522
ooc 16 64 17
ooc: add 33554432 64 32 16 0 1278941536
ooc 16 64 18
ooc: add 33554432 64 32 16 0 1526728861
ooc 16 64 19
ooc: add 33554432 64 32 16 0 1336858087
ooc 16 64 20
ooc: add 33554432 64 32 16 0 1532009616
ooc 16 64 21
ooc: add 33554432 64 32 16 0 1132004907
ooc 16 64 22
ooc: add 33554432 64 32 16 0 1525167591
ooc 16 64 23
ooc: add 33554432 64 32 16 0 1491621575
ooc 16 64 24
ooc: add 33554432 64 32 16 0 1515937253
ooc 16 64 25
ooc: add 33554432 64 32 16 0 1514274290
ooc 16 64 26
ooc: add 33554432 64 32 16 0 1398127327
ooc 16 64 27
ooc: add 33554432 64 32 16 0 1475692670
ooc 16 64 28
ooc: add 33554432 64 32 16 0 1191038452
ooc 16 64 29
ooc: add 33554432 64 32 16 0 1372017947
ooc 16 64 30
ooc: add 33554432 64 32 16 0 1412473058
ooc 17 64 1
ooc: add 33554432 64 32 17 0 1640922437
ooc 17 64 2
ooc: add 33554432 64 32 17 0 1505268864
ooc 17 64 3
ooc: add 33554432 64 32 17 0 1422414803
ooc 17 64 4
ooc: add 33554432 64 32 17 0 1616923273
ooc 17 64 5
ooc: add 33554432 64 32 17 0 1625871983
ooc 17 64 6
ooc: add 33554432 64 32 17 0 1487268155
ooc 17 64 7
ooc: add 33554432 64 32 17 0 1481637856
ooc 17 64 8
ooc: add 33554432 64 32 17 0 1497405790
ooc 17 64 9
ooc: add 33554432 64 32 17 0 1531991923
ooc 17 64 10
ooc: add 33554432 64 32 17 0 1398734410
ooc 17 64 11
ooc: add 33554432 64 32 17 0 1569926697
ooc 17 64 12
ooc: add 33554432 64 32 17 0 1593467667
ooc 17 64 13
ooc: add 33554432 64 32 17 0 1370238134
ooc 17 64 14
ooc: add 33554432 64 32 17 0 1430806080
ooc 17 64 15
ooc: add 33554432 64 32 17 0 1546463825
ooc 17 64 16
ooc: add 33554432 64 32 17 0 1556090616
ooc 17 64 17
ooc: add 33554432 64 32 17 0 1596933549
ooc 17 64 18
ooc: add 33554432 64 32 17 0 1539330109
ooc 17 64 19
ooc: add 33554432 64 32 17 0 1564002131
ooc 17 64 20
ooc: add 33554432 64 32 17 0 1517900103
ooc 17 64 21
ooc: add 33554432 64 32 17 0 1450177221
ooc 17 64 22
ooc: add 33554432 64 32 17 0 1667139220
ooc 17 64 23
ooc: add 33554432 64 32 17 0 1431985984
ooc 17 64 24
ooc: add 33554432 64 32 17 0 1266225479
ooc 17 64 25
ooc: add 33554432 64 32 17 0 1440369805
ooc 17 64 26
ooc: add 33554432 64 32 17 0 1512400765
ooc 17 64 27
ooc: add 33554432 64 32 17 0 1390427345
ooc 17 64 28
ooc: add 33554432 64 32 17 0 1149207815
ooc 17 64 29
ooc: add 33554432 64 32 17 0 1145398966
ooc 17 64 30
ooc: add 33554432 64 32 17 0 1472318872
ooc 18 64 1
ooc: add 33554432 64 32 18 0 1433006850
ooc 18 64 2
ooc: add 33554432 64 32 18 0 1566189881
ooc 18 64 3
ooc: add 33554432 64 32 18 0 1395955488
ooc 18 64 4
ooc: add 33554432 64 32 18 0 1679321798
ooc 18 64 5
ooc: add 33554432 64 32 18 0 1662250666
ooc 18 64 6
ooc: add 33554432 64 32 18 0 1544428904
ooc 18 64 7
ooc: add 33554432 64 32 18 0 1513860511
ooc 18 64 8
ooc: add 33554432 64 32 18 0 1621857088
ooc 18 64 9
ooc: add 33554432 64 32 18 0 1628534033
ooc 18 64 10
ooc: add 33554432 64 32 18 0 1750012886
ooc 18 64 11
ooc: add 33554432 64 32 18 0 1613291157
ooc 18 64 12
ooc: add 33554432 64 32 18 0 1316225771
ooc 18 64 13
ooc: add 33554432 64 32 18 0 1542851346
ooc 18 64 14
ooc: add 33554432 64 32 18 0 1574060492
ooc 18 64 15
ooc: add 33554432 64 32 18 0 1602314512
ooc 18 64 16
ooc: add 33554432 64 32 18 0 1494521594
ooc 18 64 17
ooc: add 33554432 64 32 18 0 1579254928
ooc 18 64 18
ooc: add 33554432 64 32 18 0 1608110391
ooc 18 64 19
ooc: add 33554432 64 32 18 0 1582466033
ooc 18 64 20
ooc: add 33554432 64 32 18 0 1196460799
ooc 18 64 21
ooc: add 33554432 64 32 18 0 1568272440
ooc 18 64 22
ooc: add 33554432 64 32 18 0 1632232759
ooc 18 64 23
ooc: add 33554432 64 32 18 0 1518160029
ooc 18 64 24
ooc: add 33554432 64 32 18 0 1620914047
ooc 18 64 25
ooc: add 33554432 64 32 18 0 1588255768
ooc 18 64 26
ooc: add 33554432 64 32 18 0 1605496639
ooc 18 64 27
ooc: add 33554432 64 32 18 0 1555331958
ooc 18 64 28
ooc: add 33554432 64 32 18 0 1598049903
ooc 18 64 29
ooc: add 33554432 64 32 18 0 1531050996
ooc 18 64 30
ooc: add 33554432 64 32 18 0 1481141822
ooc 19 64 1
ooc: add 33554432 64 32 19 0 1821799042
ooc 19 64 2
ooc: add 33554432 64 32 19 0 1502748534
ooc 19 64 3
ooc: add 33554432 64 32 19 0 1549628471
ooc 19 64 4
ooc: add 33554432 64 32 19 0 1419453077
ooc 19 64 5
ooc: add 33554432 64 32 19 0 1625987405
ooc 19 64 6
ooc: add 33554432 64 32 19 0 1658408458
ooc 19 64 7
ooc: add 33554432 64 32 19 0 1567757594
ooc 19 64 8
ooc: add 33554432 64 32 19 0 1836740865
ooc 19 64 9
ooc: add 33554432 64 32 19 0 1637404452
ooc 19 64 10
ooc: add 33554432 64 32 19 0 1446510124
ooc 19 64 11
ooc: add 33554432 64 32 19 0 1528837765
ooc 19 64 12
ooc: add 33554432 64 32 19 0 1517428976
ooc 19 64 13
ooc: add 33554432 64 32 19 0 1765175936
ooc 19 64 14
ooc: add 33554432 64 32 19 0 1607745280
ooc 19 64 15
ooc: add 33554432 64 32 19 0 1758047893
ooc 19 64 16
ooc: add 33554432 64 32 19 0 1631261774
ooc 19 64 17
ooc: add 33554432 64 32 19 0 1287248366
ooc 19 64 18
ooc: add 33554432 64 32 19 0 1637839682
ooc 19 64 19
ooc: add 33554432 64 32 19 0 1559380658
ooc 19 64 20
ooc: add 33554432 64 32 19 0 1348394482
ooc 19 64 21
ooc: add 33554432 64 32 19 0 1716840592
ooc 19 64 22
ooc: add 33554432 64 32 19 0 1512068999
ooc 19 64 23
ooc: add 33554432 64 32 19 0 1716778760
ooc 19 64 24
ooc: add 33554432 64 32 19 0 1587522590
ooc 19 64 25
ooc: add 33554432 64 32 19 0 1471654481
ooc 19 64 26
ooc: add 33554432 64 32 19 0 1531616154
ooc 19 64 27
ooc: add 33554432 64 32 19 0 1672177062
ooc 19 64 28
ooc: add 33554432 64 32 19 0 1505221019
ooc 19 64 29
ooc: add 33554432 64 32 19 0 1511724816
ooc 19 64 30
ooc: add 33554432 64 32 19 0 1559953335
ooc 20 64 1
ooc: add 33554432 64 32 20 0 1531583117
ooc 20 64 2
ooc: add 33554432 64 32 20 0 1574479563
ooc 20 64 3
ooc: add 33554432 64 32 20 0 1529668193
ooc 20 64 4
ooc: add 33554432 64 32 20 0 1684403641
ooc 20 64 5
ooc: add 33554432 64 32 20 0 1664387807
ooc 20 64 6
ooc: add 33554432 64 32 20 0 1659981033
ooc 20 64 7
ooc: add 33554432 64 32 20 0 1706767394
ooc 20 64 8
ooc: add 33554432 64 32 20 0 1770112818
ooc 20 64 9
ooc: add 33554432 64 32 20 0 1616951160
ooc 20 64 10
ooc: add 33554432 64 32 20 0 1587833665
ooc 20 64 11
ooc: add 33554432 64 32 20 0 1670748355
ooc 20 64 12
ooc: add 33554432 64 32 20 0 1554388666
ooc 20 64 13
ooc: add 33554432 64 32 20 0 1625627785
ooc 20 64 14
ooc: add 33554432 64 32 20 0 1675864972
ooc 20 64 15
ooc: add 33554432 64 32 20 0 1829427833
ooc 20 64 16
ooc: add 33554432 64 32 20 0 1658107874
ooc 20 64 17
ooc: add 33554432 64 32 20 0 1677940616
ooc 20 64 18
ooc: add 33554432 64 32 20 0 1338380199
ooc 20 64 19
ooc: add 33554432 64 32 20 0 1844830838
ooc 20 64 20
ooc: add 33554432 64 32 20 0 1651604366
ooc 20 64 21
ooc: add 33554432 64 32 20 0 1668603933
ooc 20 64 22
ooc: add 33554432 64 32 20 0 1649967021
ooc 20 64 23
ooc: add 33554432 64 32 20 0 1770275180
ooc 20 64 24
ooc: add 33554432 64 32 20 0 1793409376
ooc 20 64 25
ooc: add 33554432 64 32 20 0 1713845962
ooc 20 64 26
ooc: add 33554432 64 32 20 0 1687558876
ooc 20 64 27
ooc: add 33554432 64 32 20 0 1935808512
ooc 20 64 28
ooc: add 33554432 64 32 20 0 1719028601
ooc 20 64 29
ooc: add 33554432 64 32 20 0 1564126701
ooc 20 64 30
ooc: add 33554432 64 32 20 0 1601080438
Done: 20160719.014620
